{
	"success": true,
	"data": [{
		"userId": 60,
		"tradePair": 1,
		"tradePairName": "BTC/USDT",
		"tradeType": 0,
		"createdAt": "2019-11-14T02:40:31Z",
		"amount": 50.000000000000,
		"commitIndexPrice": 8751.890500000000,
		"settledIndexPrice": 8751.923200000000,
		"status": 3,
		"earning": 90.000000000000,
		"commision": 0,
		"winOrLose": "WIN",
		"odds": 0.800000000000
	}, {
		"userId": 60,
		"tradePair": 1,
		"tradePairName": "BTC/USDT",
		"tradeType": 0,
		"createdAt": "2019-11-14T02:27:27Z",
		"amount": 50.000000000000,
		"commitIndexPrice": 8750.422500000000,
		"settledIndexPrice": 8749.089900000000,
		"status": 3,
		"earning": 0E-12,
		"commision": 0,
		"winOrLose": "LOSE",
		"odds": 0.800000000000
	}, {
		"userId": 60,
		"tradePair": 1,
		"tradePairName": "BTC/USDT",
		"tradeType": 0,
		"createdAt": "2019-11-13T14:41:19Z",
		"amount": 50.000000000000,
		"commitIndexPrice": 8753.357000000000,
		"settledIndexPrice": 8753.757100000000,
		"status": 3,
		"earning": 90.000000000000,
		"commision": 0,
		"winOrLose": "WIN",
		"odds": 0.800000000000
	}, {
		"userId": 60,
		"tradePair": 1,
		"tradePairName": "BTC/USDT",
		"tradeType": 0,
		"createdAt": "2019-11-12T05:54:40Z",
		"amount": 100.000000000000,
		"commitIndexPrice": 8754.563200000000,
		"settledIndexPrice": 8744.450400000000,
		"status": 3,
		"earning": 0E-12,
		"commision": 0,
		"winOrLose": "LOSE",
		"odds": 0.800000000000
	}, {
		"userId": 60,
		"tradePair": 1,
		"tradePairName": "BTC/USDT",
		"tradeType": -1,
		"createdAt": "2019-11-12T05:54:29Z",
		"amount": 120.000000000000,
		"commitIndexPrice": 8754.332400000000,
		"settledIndexPrice": 8753.822400000000,
		"status": 3,
		"earning": 216.000000000000,
		"commision": 0,
		"winOrLose": "WIN",
		"odds": 0.800000000000
	}, {
		"userId": 60,
		"tradePair": 1,
		"tradePairName": "BTC/USDT",
		"tradeType": -1,
		"createdAt": "2019-11-12T05:54:28Z",
		"amount": 120.000000000000,
		"commitIndexPrice": 8754.439400000000,
		"settledIndexPrice": 8753.822400000000,
		"status": 3,
		"earning": 216.000000000000,
		"commision": 0,
		"winOrLose": "WIN",
		"odds": 0.800000000000
	}, {
		"userId": 60,
		"tradePair": 1,
		"tradePairName": "BTC/USDT",
		"tradeType": 0,
		"createdAt": "2019-11-12T05:53:39Z",
		"amount": 100.000000000000,
		"commitIndexPrice": 8758.152800000000,
		"settledIndexPrice": 8758.090400000000,
		"status": 3,
		"earning": 0E-12,
		"commision": 0,
		"winOrLose": "LOSE",
		"odds": 0.800000000000
	}, {
		"userId": 60,
		"tradePair": 1,
		"tradePairName": "BTC/USDT",
		"tradeType": 0,
		"createdAt": "2019-11-12T05:53:38Z",
		"amount": 100.000000000000,
		"commitIndexPrice": 8758.189000000000,
		"settledIndexPrice": 8758.090400000000,
		"status": 3,
		"earning": 0E-12,
		"commision": 0,
		"winOrLose": "LOSE",
		"odds": 0.800000000000
	}, {
		"userId": 60,
		"tradePair": 1,
		"tradePairName": "BTC/USDT",
		"tradeType": 0,
		"createdAt": "2019-11-12T05:53:37Z",
		"amount": 100.000000000000,
		"commitIndexPrice": 8758.520500000000,
		"settledIndexPrice": 8758.090400000000,
		"status": 3,
		"earning": 0E-12,
		"commision": 0,
		"winOrLose": "LOSE",
		"odds": 0.800000000000
	}, {
		"userId": 60,
		"tradePair": 1,
		"tradePairName": "BTC/USDT",
		"tradeType": 0,
		"createdAt": "2019-11-12T05:53:35Z",
		"amount": 100.000000000000,
		"commitIndexPrice": 8758.159300000000,
		"settledIndexPrice": 8758.090400000000,
		"status": 3,
		"earning": 0E-12,
		"commision": 0,
		"winOrLose": "LOSE",
		"odds": 0.800000000000
	}],
	"page": {
		"totalPages": 6,
		"totalElements": 55,
		"number": 1,
		"size": 10,
		"numberOfElements": 10
	}
}